{
  "project_info": {
    "project_number": "185700965740",
    "firebase_url": "https://safegangwon.firebaseio.com",
    "project_id": "safegangwon",
    "storage_bucket": "safegangwon.appspot.com"
  },
  "client": [
    {
      "client_info": {
        "mobilesdk_app_id": "1:185700965740:android:df590618c4819d86",
        "android_client_info": {
          "package_name": "kr.edcan.lumihana.safegangwon"
        }
      },
      "oauth_client": [
        {
          "client_id": "185700965740-d0603tiqi02d7nqk42kgl1a09728jslc.apps.googleusercontent.com",
          "client_type": 3
        }
      ],
      "api_key": [
        {
          "current_key": "AIzaSyCRwwItauP507p6bxNP5RCrkPr5nut6CI8"
        }
      ],
      "services": {
        "analytics_service": {
          "status": 1
        },
        "appinvite_service": {
          "status": 1,
          "other_platform_oauth_client": []
        },
        "ads_service": {
          "status": 2
        }
      }
    }
  ],
  "configuration_version": "1"
}